<svg xmlns="http://www.w3.org/2000/svg" width="68" height="68" viewBox="0 0 68 68">
    <g fill="#FFF" fill-rule="evenodd">
        <circle cx="34" cy="34" r="34" fill-opacity=".2"/>
        <path fill-rule="nonzero" d="M23.8 22.031v24.033a2.25 2.25 0 0 0 3.375 1.948l20.803-12.016a2.25 2.25 0 0 0 0-3.897L27.175 20.083a2.25 2.25 0 0 0-3.375 1.948z"/>
    </g>
</svg>
