<svg xmlns="http://www.w3.org/2000/svg" width="52" height="52" viewBox="0 0 52 52">
    <g fill="none" fill-rule="evenodd" transform="translate(1 1)">
        <circle cx="25" cy="25" r="25" stroke="#FFF" stroke-width="2"/>
        <path fill="#FFF" fill-rule="nonzero" d="M30.29 32H19.752v-2.353l3.491-3.018c.236-.193.612-.505 1.117-.935.505-.43.838-.72 1.02-.88.173-.15.43-.387.785-.71.344-.322.58-.569.709-.74.118-.162.269-.377.451-.645.172-.269.28-.516.333-.741.054-.226.075-.462.075-.71 0-.794-.247-1.428-.73-1.912-.494-.472-1.15-.709-1.977-.709-.795 0-1.45.248-1.976.752-.527.505-.849 1.193-.946 2.041H19.57c.076-1.514.613-2.728 1.622-3.652 1-.924 2.288-1.386 3.857-1.386 1.472 0 2.685.452 3.663 1.354.977.902 1.46 2.03 1.46 3.394 0 .763-.107 1.408-.515 2.127-.204.355-.376.656-.515.881-.14.226-.409.537-.806.924-.398.387-.677.655-.838.806-.161.16-.516.462-1.053.924-.537.461-.88.773-1.042.923l-2.288 2.02h7.176V32z"/>
    </g>
</svg>
