<svg xmlns="http://www.w3.org/2000/svg" width="32" height="32" viewBox="0 0 32 32">
    <g fill="#FFF" fill-rule="evenodd">
        <circle cx="16" cy="16" r="16" fill-opacity=".1"/>
        <path stroke="#FFF" d="M17 15h5a1 1 0 0 1 0 2h-5v5a1 1 0 0 1-2 0v-5h-5a1 1 0 0 1 0-2h5v-5a1 1 0 0 1 2 0v5z"/>
    </g>
</svg>
