<svg xmlns="http://www.w3.org/2000/svg" width="52" height="44" viewBox="0 0 52 44">
    <defs>
        <linearGradient id="a" x1="0%" y1="84.215%" y2="14.201%">
            <stop offset="0%" stop-color="#FF6831"/>
            <stop offset="100%" stop-color="#FFB906"/>
        </linearGradient>
    </defs>
    <path fill="url(#a)" fill-rule="nonzero" d="M4 0C1.79 0 0 1.79 0 4v32c0 2.21 1.79 4 4 4h16c2.21 0 4 1.79 4 4V4c0-2.21-1.79-4-4-4H4zm28 0c-2.21 0-4 1.79-4 4v40c0-2.21 1.79-4 4-4h16c2.21 0 4-1.79 4-4V4c0-2.21-1.79-4-4-4H32z"/>
</svg>
