<svg xmlns="http://www.w3.org/2000/svg" width="1799" height="750" viewBox="0 0 1799 750">
    <defs>
        <linearGradient id="a" x1="100%" x2="0%" y1="41.31%" y2="58.69%">
            <stop offset="0%" stop-color="#0F0F0F" stop-opacity="0"/>
            <stop offset="50.039%" stop-color="#0F0F0F" stop-opacity=".5"/>
            <stop offset="100%" stop-color="#0F0F0F" stop-opacity=".9"/>
        </linearGradient>
    </defs>
    <path fill="url(#a)" fill-rule="evenodd" d="M72 8.01C72 3.585 75.585 0 79.996 0h1783.008A7.995 7.995 0 0 1 1871 8.01v733.98c0 4.424-3.585 8.01-7.996 8.01H79.996A7.995 7.995 0 0 1 72 741.99V8.01z" transform="translate(-72)"/>
</svg>
